^C:\USERS\FERNANDO NEVES\DESKTOP\WORK\WPP\LIBS\JSON\LIB_JSON\JSON_READER.CPP|C:\USERS\FERNANDO NEVES\DESKTOP\WORK\WPP\LIBS\JSON\LIB_JSON\JSON_VALUE.CPP|C:\USERS\FERNANDO NEVES\DESKTOP\WORK\WPP\LIBS\JSON\LIB_JSON\JSON_WRITER.CPP|C:\USERS\FERNANDO NEVES\DESKTOP\WORK\WPP\SOCKETCONNECTION\MAIN.CPP
C:\USERS\FERNANDO NEVES\DESKTOP\WORK\WPP\SOCKETCONNECTION\RELEASE\VC120.PDB
C:\USERS\FERNANDO NEVES\DESKTOP\WORK\WPP\SOCKETCONNECTION\RELEASE\MAIN.OBJ
C:\USERS\FERNANDO NEVES\DESKTOP\WORK\WPP\SOCKETCONNECTION\RELEASE\JSON_WRITER.OBJ
C:\USERS\FERNANDO NEVES\DESKTOP\WORK\WPP\SOCKETCONNECTION\RELEASE\JSON_VALUE.OBJ
C:\USERS\FERNANDO NEVES\DESKTOP\WORK\WPP\SOCKETCONNECTION\RELEASE\JSON_READER.OBJ
^C:\USERS\FERNANDO NEVES\DESKTOP\WORK\WPP\LIBS\JSON\LIB_JSON\JSON_READER.CPP
C:\USERS\FERNANDO NEVES\DESKTOP\WORK\WPP\SOCKETCONNECTION\RELEASE\VC120.PDB
^C:\USERS\FERNANDO NEVES\DESKTOP\WORK\WPP\LIBS\JSON\LIB_JSON\JSON_VALUE.CPP
C:\USERS\FERNANDO NEVES\DESKTOP\WORK\WPP\SOCKETCONNECTION\RELEASE\VC120.PDB
^C:\USERS\FERNANDO NEVES\DESKTOP\WORK\WPP\LIBS\JSON\LIB_JSON\JSON_WRITER.CPP
C:\USERS\FERNANDO NEVES\DESKTOP\WORK\WPP\SOCKETCONNECTION\RELEASE\VC120.PDB
